com\pitang\anderson\duarte\dto\CarDTO.class
com\pitang\anderson\duarte\model\User.class
com\pitang\anderson\duarte\repository\CarRepository.class
com\pitang\anderson\duarte\model\Car.class
com\pitang\anderson\duarte\dto\LoginResponseDTO.class
com\pitang\anderson\duarte\dto\UserCreateDTO.class
com\pitang\anderson\duarte\service\impl\UserDetailsServiceImpl.class
com\pitang\anderson\duarte\utils\ApplicationUtils.class
com\pitang\anderson\duarte\repository\UserRepository.class
com\pitang\anderson\duarte\dto\UserMeDTO.class
com\pitang\anderson\duarte\dto\LoginDTO.class
com\pitang\anderson\duarte\dto\UserDTO.class
