C:\ambiente-de-trabalho\workspace\backend-desafio\desafio-core\src\main\java\com\pitang\anderson\duarte\model\User.java
C:\ambiente-de-trabalho\workspace\backend-desafio\desafio-core\src\main\java\com\pitang\anderson\duarte\dto\UserMeDTO.java
C:\ambiente-de-trabalho\workspace\backend-desafio\desafio-core\src\main\java\com\pitang\anderson\duarte\model\Car.java
C:\ambiente-de-trabalho\workspace\backend-desafio\desafio-core\src\main\java\com\pitang\anderson\duarte\dto\LoginDTO.java
C:\ambiente-de-trabalho\workspace\backend-desafio\desafio-core\src\main\java\com\pitang\anderson\duarte\dto\LoginResponseDTO.java
C:\ambiente-de-trabalho\workspace\backend-desafio\desafio-core\src\main\java\com\pitang\anderson\duarte\service\impl\UserDetailsServiceImpl.java
C:\ambiente-de-trabalho\workspace\backend-desafio\desafio-core\src\main\java\com\pitang\anderson\duarte\utils\ApplicationUtils.java
C:\ambiente-de-trabalho\workspace\backend-desafio\desafio-core\src\main\java\com\pitang\anderson\duarte\dto\CarDTO.java
C:\ambiente-de-trabalho\workspace\backend-desafio\desafio-core\src\main\java\com\pitang\anderson\duarte\dto\UserDTO.java
C:\ambiente-de-trabalho\workspace\backend-desafio\desafio-core\src\main\java\com\pitang\anderson\duarte\repository\UserRepository.java
C:\ambiente-de-trabalho\workspace\backend-desafio\desafio-core\src\main\java\com\pitang\anderson\duarte\dto\UserCreateDTO.java
C:\ambiente-de-trabalho\workspace\backend-desafio\desafio-core\src\main\java\com\pitang\anderson\duarte\repository\CarRepository.java
